{
    "results": [
        {
            "tags": [],
            "title": "1111",
            "body": "ν…μ¤νΈμ©μ…λ‹λ‹¤.",
            "createdAt": "2021-11-03T03:41:50.637Z",
            "updatedAt": "2021-11-03T03:41:50.637Z",
            "id": "618204fe7e5d55002bbaf57a"
        },
        {
            "tags": [],
            "title": "μ›Ή κ°λ°μ ν¬νΈν΄λ¦¬μ¤ A to Z(κΈ°νλ¶€ν„° λ°°ν¬κΉμ§€)",
            "body": "1. IT νμ‚¬μ— κ°λ°μ μ·¨μ—…ν•λ” λ°©λ²•\\nIT νμ‚¬μ— κ°λ°μλ΅ μ·¨μ—…μ„ ν•λ ¤λ©΄ κ°λ°μ— λ€ν• μ§€μ‹ / κ²½λ ¥ / μ‹¤λ ¥μ΄ ν•„μ”ν•©λ‹λ‹¤. κ²½λ ¥μ΄ μ—†λ” μ‹ μ…(~3λ…„ μ°¨)μ—κ² νμ‚¬κ°€ μ§€μ‹κ³Ό κ²½λ ¥κ³Ό μ‹¤λ ¥μ„ ν™•μΈν•λ” λ°©λ²•μ€ λ¬΄μ—‡μΌκΉμ”?",
            "createdAt": "2021-11-03T04:27:13.057Z",
            "updatedAt": "2021-11-03T04:27:13.057Z",
            "id": "61820fa17e5d55002bbaf57b"
        },
        {
            "tags": [],
            "title": "μ›Ή κ°λ°μ ν¬νΈν΄λ¦¬μ¤ A to Z(κΈ°νλ¶€ν„° λ°°ν¬κΉμ§€)",
            "body": "1. IT νμ‚¬μ— κ°λ°μ μ·¨μ—…ν•λ” λ°©λ²•\\nIT νμ‚¬μ— κ°λ°μλ΅ μ·¨μ—…μ„ ν•λ ¤λ©΄ κ°λ°μ— λ€ν• μ§€μ‹ / κ²½λ ¥ / μ‹¤λ ¥μ΄ ν•„μ”ν•©λ‹λ‹¤. κ²½λ ¥μ΄ μ—†λ” μ‹ μ…(~3λ…„ μ°¨)μ—κ² νμ‚¬κ°€ μ§€μ‹κ³Ό κ²½λ ¥κ³Ό μ‹¤λ ¥μ„ ν™•μΈν•λ” λ°©λ²•μ€ λ¬΄μ—‡μΌκΉμ”?",
            "createdAt": "2021-11-03T04:27:14.255Z",
            "updatedAt": "2021-11-03T04:27:14.255Z",
            "id": "61820fa27e5d55002bbaf57c"
        },
        {
            "tags": [],
            "title": "μ›Ή κ°λ°μ ν¬νΈν΄λ¦¬μ¤ A to Z(κΈ°νλ¶€ν„° λ°°ν¬κΉμ§€)",
            "body": "1. IT νμ‚¬μ— κ°λ°μ μ·¨μ—…ν•λ” λ°©λ²•\\nIT νμ‚¬μ— κ°λ°μλ΅ μ·¨μ—…μ„ ν•λ ¤λ©΄ κ°λ°μ— λ€ν• μ§€μ‹ / κ²½λ ¥ / μ‹¤λ ¥μ΄ ν•„μ”ν•©λ‹λ‹¤. κ²½λ ¥μ΄ μ—†λ” μ‹ μ…(~3λ…„ μ°¨)μ—κ² νμ‚¬κ°€ μ§€μ‹κ³Ό κ²½λ ¥κ³Ό μ‹¤λ ¥μ„ ν™•μΈν•λ” λ°©λ²•μ€ λ¬΄μ—‡μΌκΉμ”?",
            "createdAt": "2021-11-03T04:27:15.495Z",
            "updatedAt": "2021-11-03T04:27:15.495Z",
            "id": "61820fa37e5d55002bbaf57d"
        },
        {
            "tags": [],
            "title": "μ›Ή κ°λ°μ ν¬νΈν΄λ¦¬μ¤ A to Z(κΈ°νλ¶€ν„° λ°°ν¬κΉμ§€)",
            "body": "1. IT νμ‚¬μ— κ°λ°μ μ·¨μ—…ν•λ” λ°©λ²•\\nIT νμ‚¬μ— κ°λ°μλ΅ μ·¨μ—…μ„ ν•λ ¤λ©΄ κ°λ°μ— λ€ν• μ§€μ‹ / κ²½λ ¥ / μ‹¤λ ¥μ΄ ν•„μ”ν•©λ‹λ‹¤. κ²½λ ¥μ΄ μ—†λ” μ‹ μ…(~3λ…„ μ°¨)μ—κ² νμ‚¬κ°€ μ§€μ‹κ³Ό κ²½λ ¥κ³Ό μ‹¤λ ¥μ„ ν™•μΈν•λ” λ°©λ²•μ€ λ¬΄μ—‡μΌκΉμ”?",
            "createdAt": "2021-11-04T04:59:39.840Z",
            "updatedAt": "2021-11-04T04:59:39.840Z",
            "id": "618368bb63d12b002b3a6059"
        },
        {
            "tags": [],
            "title": "asfd",
            "body": "123213testsetset",
            "thumbnail": null,
            "createdAt": "2021-11-05T16:33:30.943Z",
            "updatedAt": "2021-11-06T09:57:40.768Z",
            "id": "61855cda5657bf002ba7fbe8"
        },
        {
            "tags": [],
            "title": "π’•",
            "body": "ddd",
            "thumbnail": null,
            "createdAt": "2021-11-06T08:08:10.324Z",
            "updatedAt": "2021-11-06T08:08:10.324Z",
            "id": "618637ea8c3f09002badb7eb"
        },
        {
            "tags": [],
            "title": "test",
            "body": "test β¤π’¤",
            "thumbnail": null,
            "createdAt": "2021-11-06T08:08:13.449Z",
            "updatedAt": "2021-11-06T08:08:13.449Z",
            "id": "618637ed8c3f09002badb7ec"
        },
        {
            "tags": [],
            "title": "&lt;p>λ””λΈ&lt;p>",
            "body": "&lt;p>asd&lt;/p>",
            "thumbnail": "",
            "createdAt": "2021-11-06T09:10:40.478Z",
            "updatedAt": "2021-11-06T09:10:40.478Z",
            "id": "618646908c3f09002badb7fa"
        },
        {
            "tags": ["γ…γ„΄γ…‡", "γ…‡γ…‡", "γ…‡γ…‡γ„΄", "γ…‡", "γ„΄", "γ…‚", "γ…", "γ„·"],
            "title": "γ„΄γ…γ…‡γ„΄γ…γ…‡γ…",
            "body": "γ…γ„΄γ…‡γ„΄γ…γ„΄γ…‡γ…γ„΄γ…‡γ…γ„΄γ…‡γ„΄γ…γ…‡\nγ…γ„΄γ…‡γ…γ„΄γ…‡\nγ…γ„΄γ…‡γ…γ„΄γ…‡\nγ…γ„΄γ…‡\nγ…γ„΄γ…‡γ…γ„΄\nγ…‡\nγ…γ„΄\nγ…‡\nγ…γ„΄γ…‡\nγ…γ„΄\nγ…‡\nγ…γ„΄γ…‡γ…γ„΄γ…‡\nγ…γ„΄\nγ…‡\nγ…γ„΄γ…‡",
            "createdAt": "2021-11-06T10:43:38.451Z",
            "updatedAt": "2021-11-06T10:43:38.451Z",
            "id": "61865c5a8c3f09002badb801"
        }
    ],
    "page": 1,
    "limit": 10,
    "totalPages": 4,
    "totalResults": 34
}
